Final Project
…
## [1] "Outliers Do Not Exceed 5% of Obs"

#### Backwards Search - BIC Model: Unusual Observtions -- Cooks Distance > 4 / n
cd_bic_model <- cooks.distance(bic_model) > 4 / n
print(paste("Number of Influential Observations: ", sum(cd_bic_model)))

## [1] "Number of Influential Observations:  26"

bbproj_trn[which(cd_bic_model),]

## # A tibble: 26 x 51
##    yearID franchID     W DivWin WCWin LgWin WSWin     R    AB     H   X2B
##     <int> <fct>    <int> <fct>  <fct> <fct> <fct> <int> <int> <int> <int>
##  1   2000 CHC         65 N      N     N     N       764  5577  1426   272
##  2   2000 HOU         72 N      N     N     N       938  5570  1547   289
##  3   2000 MIL         73 N      N     N     N       740  5563  1366   297
##  4   2000 TOR         83 N      N     N     N       861  5677  1562   328
##  5   2001 TBD         62 N      N     N     N       672  5524  1426   311
##  6   2002 BOS         93 N      N     N     N       859  5640  1560   348
##  7   2002 MIL         56 N      N     N     N       627  5415  1369   269
##  8   2002 MIN         94 Y      N     N     N       768  5582  1518   348
##  9   2002 OAK        103 Y      N     N     N       800  5558  1450   279
## 10   2003 FLA         91 N      Y     Y     Y       751  5490  1459   292
## # ... with 16 more rows, and 40 more variables: X3B <int>, HR <int>,
## #   BB <int>, SO <int>, SB <int>, CS <int>, HBP <int>, SF <int>, RA <int>,
## #   ER <int>, ERA <dbl>, CG <int>, SHO <int>, SV <int>, IPouts <int>,
## #   HA <int>, HRA <int>, BBA <int>, SOA <int>, E <int>, DP <int>,
## #   FP <dbl>, park <fct>, attendance <int>, BPF <int>, PPF <int>,
## #   salary <int>, RBI <int>, GIDP <int>, IBB <int>, TB <int>, SLG <dbl>,
## #   OBP <dbl>, OPS <dbl>, WHIP <dbl>, BABIP <dbl>, RC <dbl>, X1B <int>,
## #   uBB <int>, wOBA <dbl>
…
## [1] "Outliers Do Not Exceed 5% of Obs"

####  Backwards Search - AIC Model: Unusual Observtions -- Cooks Distance > 4 / n
cd_aic_model <- cooks.distance(aic_model) > 4 / n
print(paste("Number of Influential Observations: ", sum(cd_aic_model)))

## [1] "Number of Influential Observations:  22"

bbproj_trn[which(cd_aic_model),]

## # A tibble: 22 x 51
##    yearID franchID     W DivWin WCWin LgWin WSWin     R    AB     H   X2B
##     <int> <fct>    <int> <fct>  <fct> <fct> <fct> <int> <int> <int> <int>
##  1   2000 CHC         65 N      N     N     N       764  5577  1426   272
##  2   2000 HOU         72 N      N     N     N       938  5570  1547   289
##  3   2000 KCR         77 N      N     N     N       879  5709  1644   281
##  4   2000 MIL         73 N      N     N     N       740  5563  1366   297
##  5   2000 TOR         83 N      N     N     N       861  5677  1562   328
##  6   2002 BOS         93 N      N     N     N       859  5640  1560   348
##  7   2002 MIL         56 N      N     N     N       627  5415  1369   269
##  8   2002 MIN         94 Y      N     N     N       768  5582  1518   348
##  9   2002 OAK        103 Y      N     N     N       800  5558  1450   279
## 10   2003 FLA         91 N      Y     Y     Y       751  5490  1459   292
## # ... with 12 more rows, and 40 more variables: X3B <int>, HR <int>,
## #   BB <int>, SO <int>, SB <int>, CS <int>, HBP <int>, SF <int>, RA <int>,
## #   ER <int>, ERA <dbl>, CG <int>, SHO <int>, SV <int>, IPouts <int>,
## #   HA <int>, HRA <int>, BBA <int>, SOA <int>, E <int>, DP <int>,
## #   FP <dbl>, park <fct>, attendance <int>, BPF <int>, PPF <int>,
## #   salary <int>, RBI <int>, GIDP <int>, IBB <int>, TB <int>, SLG <dbl>,
## #   OBP <dbl>, OPS <dbl>, WHIP <dbl>, BABIP <dbl>, RC <dbl>, X1B <int>,
## #   uBB <int>, wOBA <dbl>
…
## [1] "Does Not Exceed 5% of Obs"

####  Step Search - BIC Model: Unusual Observtions -- Cooks Distance > 4 / n
cd_step_bic_model <- cooks.distance(step_bic_model) > 4 / n
print(paste("Number of Influential Observations: ", sum(cd_step_bic_model)))

## [1] "Number of Influential Observations:  23"

bbproj_trn[which(cd_step_bic_model),]

## # A tibble: 23 x 51
##    yearID franchID     W DivWin WCWin LgWin WSWin     R    AB     H   X2B
##     <int> <fct>    <int> <fct>  <fct> <fct> <fct> <int> <int> <int> <int>
##  1   2000 HOU         72 N      N     N     N       938  5570  1547   289
##  2   2000 TOR         83 N      N     N     N       861  5677  1562   328
##  3   2002 BOS         93 N      N     N     N       859  5640  1560   348
##  4   2003 FLA         91 N      Y     Y     Y       751  5490  1459   292
##  5   2003 HOU         87 N      N     N     N       805  5583  1466   308
##  6   2003 SFG        100 Y      N     N     N       755  5456  1440   281
##  7   2004 NYY        101 Y      N     N     N       897  5527  1483   281
##  8   2004 OAK         91 N      N     N     N       793  5728  1545   336
##  9   2005 ARI         77 N      N     N     N       696  5550  1419   291
## 10   2006 CLE         78 N      N     N     N       870  5619  1576   351
## # ... with 13 more rows, and 40 more variables: X3B <int>, HR <int>,
## #   BB <int>, SO <int>, SB <int>, CS <int>, HBP <int>, SF <int>, RA <int>,
## #   ER <int>, ERA <dbl>, CG <int>, SHO <int>, SV <int>, IPouts <int>,
## #   HA <int>, HRA <int>, BBA <int>, SOA <int>, E <int>, DP <int>,
## #   FP <dbl>, park <fct>, attendance <int>, BPF <int>, PPF <int>,
## #   salary <int>, RBI <int>, GIDP <int>, IBB <int>, TB <int>, SLG <dbl>,
## #   OBP <dbl>, OPS <dbl>, WHIP <dbl>, BABIP <dbl>, RC <dbl>, X1B <int>,
## #   uBB <int>, wOBA <dbl>
…
## [1] "Does Not Exceed 5% of Obs"

####  Step Search - AIC Model: Unusual Observtions -- Cooks Distance > 4 / n
cd_step_aic_model <- cooks.distance(step_aic_model) > 4 / n
print(paste("Number of Influential Observations: ", sum(cd_step_aic_model)))

## [1] "Number of Influential Observations:  29"

bbproj_trn[which(cd_step_aic_model),]

## # A tibble: 29 x 51
##    yearID franchID     W DivWin WCWin LgWin WSWin     R    AB     H   X2B
##     <int> <fct>    <int> <fct>  <fct> <fct> <fct> <int> <int> <int> <int>
##  1   2000 CHC         65 N      N     N     N       764  5577  1426   272
##  2   2000 HOU         72 N      N     N     N       938  5570  1547   289
##  3   2000 KCR         77 N      N     N     N       879  5709  1644   281
##  4   2000 MIL         73 N      N     N     N       740  5563  1366   297
##  5   2000 SFG         97 Y      N     N     N       925  5519  1535   304
##  6   2000 TOR         83 N      N     N     N       861  5677  1562   328
##  7   2001 COL         73 N      N     N     N       923  5690  1663   324
##  8   2002 BOS         93 N      N     N     N       859  5640  1560   348
##  9   2002 MIL         56 N      N     N     N       627  5415  1369   269
## 10   2002 MIN         94 Y      N     N     N       768  5582  1518   348
## # ... with 19 more rows, and 40 more variables: X3B <int>, HR <int>,
## #   BB <int>, SO <int>, SB <int>, CS <int>, HBP <int>, SF <int>, RA <int>,
## #   ER <int>, ERA <dbl>, CG <int>, SHO <int>, SV <int>, IPouts <int>,
## #   HA <int>, HRA <int>, BBA <int>, SOA <int>, E <int>, DP <int>,
## #   FP <dbl>, park <fct>, attendance <int>, BPF <int>, PPF <int>,
## #   salary <int>, RBI <int>, GIDP <int>, IBB <int>, TB <int>, SLG <dbl>,
## #   OBP <dbl>, OPS <dbl>, WHIP <dbl>, BABIP <dbl>, RC <dbl>, X1B <int>,
## #   uBB <int>, wOBA <dbl>
…
